\relax 
\citation{werf:2015}
\@writefile{toc}{\contentsline {section}{\numberline {1}Introduction}{1}}
\@writefile{lof}{\contentsline {figure}{\numberline {1}{\ignorespaces The Go Game}}{2}}
\newlabel{fig:Go}{{1}{2}}
\newlabel{fig:Go@cref}{{[figure][1][]1}{2}}
\@writefile{toc}{\contentsline {section}{\numberline {2}Rules of Go Game}{2}}
\@writefile{lof}{\contentsline {figure}{\numberline {2}{\ignorespaces If White plays at A, the black chain loses its last liberty. It is captured and removed from the board}}{2}}
\newlabel{fig:Liberty before and after}{{2}{2}}
\newlabel{fig:Liberty before and after@cref}{{[figure][2][]2}{2}}
\@writefile{lof}{\contentsline {figure}{\numberline {3}{\ignorespaces ko}}{3}}
\newlabel{fig:sucide}{{3}{3}}
\newlabel{fig:sucide@cref}{{[figure][3][]3}{3}}
\@writefile{toc}{\contentsline {section}{\numberline {3} Templates Used}{3}}
\@writefile{lof}{\contentsline {figure}{\numberline {4}{\ignorespaces The First look of Template}}{4}}
\newlabel{fig:GBBS}{{4}{4}}
\newlabel{fig:GBBS@cref}{{[figure][4][]4}{4}}
\@writefile{lof}{\contentsline {figure}{\numberline {5}{\ignorespaces THE block diagram of Go Game}}{4}}
\newlabel{fig:H}{{5}{4}}
\newlabel{fig:H@cref}{{[figure][5][]5}{4}}
\@writefile{toc}{\contentsline {section}{\numberline {4}Search Method}{5}}
\@writefile{toc}{\contentsline {section}{\numberline {5}Coding parts}{5}}
\citation{Bjarne:2013}
\bibstyle{plain}
\bibdata{bibliography}
\bibcite{werf:2015}{1}
\bibcite{Bjarne:2013}{2}
\@writefile{toc}{\contentsline {section}{\numberline {6}Testing}{6}}
\@writefile{toc}{\contentsline {section}{\numberline {7}Results}{6}}
\@writefile{toc}{\contentsline {section}{\numberline {8}Concluding remarks}{6}}
